 312,  465,  337,  663,  847,  687,  520,  197,  224,  684,  254,  725,  160,  314,  585,  359,  239,  487,  067,  991,  454,  916,  727,  139,  611,  573,  010,  252,  308,  644,  638,  572,  481,  350,  753,  025,  840,  291,  691,  422,  141,  500,  299,  978,  983,  908,  621,  403,  197,  154,  678,  231,  464,  971,  308,  339,  898,  585,  337,  429,  859,  258,  852,  486,  166,  413,  173,  737,  871,  820,  537,  385,  412,  339,  481,  277,  968,  718,  439,  950,  671,  341,  500,  030,  500,  227,  232,  271,  121,  274,  357,  749,  500,  007,  699,  052,  670,  326,  407,  947,  312, 

 749,  704,  623,  076,  250,  996,  700,  005,  947,  753,  472,  121,  172,  232,  722,  005,  030,  005,  143,  176,  059,  934,  817,  869,  772,  184,  933,  214,  583,  735,  028,  178,  737,  371,  314,  661,  684,  258,  852,  958,  924,  733,  585,  898,  933,  803,  179,  464,  132,  876,  451,  791,  304,  126,  809,  389,  879,  992,  005,  141,  224,  196,  192,  048,  520,  357,  053,  184,  275,  836,  446,  803,  252,  010,  375,  116,  931,  727,  619,  454,  199,  760,  784,  932,  953,  585,  413,  061,  527,  452,  486,  422,  791,  025,  786,  748,  366,  733,  564,  213,  749, 
32, 17, 21, 
43, 66, 56, 
30, 36, 79, 
66, 60, 38, 
81, 42, 76, 
62, 82, 71, 
56, 23, 9, 
12, 99, 78, 
28, 28, 48, 
62, 84, 44, 
24, 57, 41, 
75, 27, 51, 
10, 64, 4, 
39, 18, 49, 
59, 84, 54, 
38, 59, 98, 
28, 39, 96, 
46, 88, 79, 
4, 63, 77, 
93, 92, 13, 
43, 50, 48, 
95, 16, 60, 
78, 24, 72, 
10, 39, 96, 
63, 14, 14, 
53, 70, 34, 
5, 12, 6, 
23, 59, 27, 
31, 7, 86, 
60, 40, 43, 
62, 31, 88, 
50, 70, 21, 
40, 85, 13, 
39, 56, 6, 
76, 58, 36, 
4, 26, 55, 
84, 40, 2, 
27, 97, 18, 
69, 96, 16, 
46, 22, 22, 
14, 48, 11, 
59, 5, 2, 
26, 92, 90, 
90, 70, 81, 
92, 85, 32, 
96, 100, 82, 
67, 24, 14, 
48, 7, 35, 
14, 96, 73, 
10, 53, 40, 
69, 74, 85, 
26, 30, 14, 
40, 68, 46, 
95, 75, 13, 
32, 6, 81, 
38, 34, 94, 
85, 98, 80, 
59, 86, 54, 
35, 38, 77, 
44, 25, 95, 
81, 55, 97, 
21, 55, 89, 
88, 57, 25, 
41, 80, 62, 
11, 66, 60, 
40, 15, 35, 
11, 74, 30, 
75, 35, 78, 
85, 73, 18, 
84, 27, 2, 
58, 31, 72, 
37, 86, 59, 
40, 18, 26, 
36, 33, 95, 
41, 85, 17, 
24, 70, 77, 
91, 62, 85, 
70, 14, 87, 
43, 39, 92, 
95, 57, 6, 
62, 79, 16, 
39, 41, 12, 
58, 6, 1, 
3, 39, 6, 
50, 5, 9, 
29, 22, 70, 
22, 39, 26, 
28, 74, 16, 
13, 21, 17, 
22, 78, 48, 
34, 59, 77, 
72, 41, 97, 
56, 5, 8, 
7, 8, 71, 
64, 98, 91, 
9, 55, 22, 
61, 74, 1, 
30, 20, 63, 
47, 100, 73, 
92, 43, 77, 
31, 17, 22, 
