 251,  959,  084,  756,  578,  934,  940,  271,  832,  400,  483,  985,  714,  292,  821,  262,  040,  320,  277,  771,  378,  360,  436,  620,  207,  075,  955,  562,  640,  185,  258,  807,  844,  069,  182,  906,  412,  495,  150,  821,  892,  985,  591,  491,  761,  845,  028,  084,  891,  200,  728,  449,  926,  873,  928,  072,  877,  767,  359,  714,  183,  472,  702,  618,  963,  750,  149,  718,  246,  911,  650,  776,  133,  798,  590,  957,  000,  973,  304,  597,  488,  084,  284,  017,  974,  291,  006,  424,  586,  918,  171,  951,  187,  461,  215,  151,  726,  546,  322,  822,  168,  699,  875,  491,  824,  224,  336,  372,  590,  851,  418,  654,  620,  435,  767,  984,  233,  871,  847,  744,  479,  207,  399,  342,  365,  848,  238,  242,  811,  981,  638,  150,  106,  748,  104,  516,  603,  773,  060,  562,  016,  196,  762,  561,  338,  441,  436,  038,  339,  044,  149,  526,  344,  321,  901,  146,  575,  444,  541,  784,  240,  209,  246,  165,  157,  233,  507,  787,  077,  498,  171,  257,  724,  679,  629,  263,  863,  563,  732,  899,  121,  548,  314,  381,  678,  998,  850,  404,  453,  640,  235,  273,  819,  513,  786,  365,  643,  912,  120,  103,  971,  228,  221,  207,  203,  572, 
 753,  027,  021,  228,  221,  793,  010,  212,  193,  465,  636,  873,  159,  183,  725,  320,  463,  544,  040,  588,  998,  761,  834,  138,  451,  219,  982,  373,  653,  683,  629,  269,  764,  277,  521,  718,  947,  707,  877,  053,  327,  515,  616,  429,  020,  424,  871,  454,  445,  756,  411,  091,  234,  436,  259,  414,  409,  338,  306,  341,  448,  331,  652,  676,  916,  102,  650,  603,  773,  066,  154,  018,  476,  010,  518,  361,  891,  182,  428,  328,  485,  632,  439,  937,  029,  744,  477,  481,  783,  324,  897,  675,  340,  264,  568,  141,  580,  952,  736,  334,  224,  281,  945,  789,  968,  612,  282,  236,  456,  271,  515,  121,  647,  811,  591,  718,  196,  854,  246,  001,  924,  797,  104,  824,  808,  847,  954,  033,  790,  007,  590,  958,  973,  316,  770,  561,  196,  428,  179,  410,  573,  698,  162,  072,  743,  814,  179,  537,  677,  782,  708,  293,  786,  299,  448,  270,  021,  984,  808,  205,  481,  671,  941,  955,  892,  981,  280,  515,  942,  146,  092,  819,  604,  487,  088,  525,  810,  462,  655,  595,  707,  020,  266,  340,  638,  731,  777,  720,  230,  402,  621,  282,  924,  175,  893,  840,  042,  381,  720,  494,  398,  756,  574,  809,  591,  527, 
21, 52, 17, 
95, 59, 99, 
2, 80, 46, 
76, 59, 69, 
56, 79, 85, 
99, 34, 42, 
97, 45, 1, 
27, 78, 10, 
89, 38, 27, 
48, 7, 3, 
47, 82, 37, 
90, 80, 56, 
73, 14, 43, 
27, 91, 24, 
83, 28, 18, 
23, 62, 29, 
5, 49, 7, 
34, 29, 100, 
22, 77, 71, 
73, 70, 11, 
39, 73, 88, 
31, 63, 100, 
47, 36, 64, 
61, 27, 9, 
21, 1, 78, 
8, 72, 51, 
94, 59, 58, 
56, 64, 21, 
69, 47, 100, 
14, 84, 53, 
28, 56, 84, 
83, 6, 73, 
88, 44, 43, 
7, 68, 99, 
16, 85, 24, 
91, 3, 60, 
40, 19, 26, 
46, 90, 57, 
10, 56, 6, 
87, 21, 10, 
88, 94, 27, 
98, 86, 55, 
59, 90, 18, 
48, 96, 16, 
72, 67, 14, 
84, 48, 51, 
4, 20, 87, 
7, 82, 42, 
88, 92, 11, 
29, 9, 8, 
76, 23, 85, 
45, 41, 95, 
97, 24, 66, 
80, 76, 35, 
98, 24, 89, 
100, 78, 26, 
80, 75, 75, 
70, 65, 74, 
34, 53, 94, 
79, 17, 43, 
12, 80, 31, 
45, 77, 22, 
73, 1, 22, 
63, 12, 80, 
99, 66, 36, 
77, 52, 7, 
11, 46, 92, 
78, 17, 84, 
28, 41, 69, 
96, 18, 16, 
66, 59, 7, 
78, 71, 67, 
13, 33, 36, 
77, 93, 84, 
54, 91, 9, 
97, 59, 70, 
1, 100, 3, 
92, 75, 37, 
33, 4, 47, 
59, 95, 72, 
44, 89, 85, 
6, 89, 44, 
22, 88, 43, 
6, 12, 79, 
94, 70, 48, 
22, 90, 16, 
2, 9, 62, 
44, 21, 45, 
52, 80, 68, 
97, 14, 82, 
19, 74, 17, 
93, 59, 15, 
19, 80, 74, 
46, 60, 18, 
22, 12, 55, 
14, 57, 12, 
76, 23, 63, 
59, 41, 60, 
30, 22, 22, 
86, 21, 25, 
17, 67, 85, 
63, 91, 93, 
82, 78, 58, 
48, 95, 18, 
84, 21, 47, 
21, 26, 47, 
32, 36, 62, 
32, 74, 23, 
58, 92, 3, 
84, 50, 13, 
49, 19, 87, 
66, 53, 44, 
68, 29, 6, 
44, 30, 57, 
70, 67, 75, 
96, 84, 43, 
27, 36, 37, 
85, 75, 18, 
80, 49, 78, 
70, 41, 40, 
43, 78, 97, 
22, 6, 79, 
31, 90, 92, 
37, 40, 21, 
31, 65, 59, 
86, 42, 83, 
26, 30, 80, 
23, 46, 27, 
81, 16, 14, 
90, 83, 13, 
68, 32, 81, 
13, 53, 7, 
10, 6, 63, 
76, 41, 85, 
17, 4, 42, 
54, 12, 61, 
63, 3, 33, 
74, 74, 35, 
4, 67, 4, 
58, 66, 26, 
6, 12, 61, 
12, 92, 61, 
73, 60, 23, 
58, 63, 13, 
35, 36, 85, 
47, 43, 12, 
42, 30, 66, 
1, 36, 88, 
31, 38, 98, 
9, 47, 47, 
19, 47, 93, 
54, 24, 63, 
31, 48, 48, 
37, 26, 19, 
96, 2, 18, 
15, 46, 60, 
50, 78, 57, 
41, 41, 41, 
57, 46, 19, 
77, 80, 47, 
27, 42, 9, 
26, 2, 96, 
21, 40, 66, 
18, 60, 51, 
15, 53, 75, 
22, 37, 35, 
50, 100, 73, 
76, 82, 78, 
4, 78, 75, 
49, 92, 84, 
10, 76, 10, 
24, 54, 78, 
76, 21, 42, 
63, 76, 92, 
65, 21, 91, 
29, 65, 36, 
80, 61, 36, 
53, 68, 34, 
76, 30, 24, 
88, 93, 96, 
15, 22, 15, 
51, 41, 84, 
39, 10, 40, 
33, 80, 15, 
60, 70, 86, 
97, 92, 83, 
87, 55, 7, 
45, 1, 48, 
49, 55, 39, 
60, 49, 8, 
25, 35, 56, 
22, 76, 30, 
83, 14, 95, 
51, 14, 36, 
72, 81, 61, 
35, 65, 53, 
64, 48, 38, 
96, 12, 29, 
11, 25, 2, 
12, 6, 35, 
96, 76, 16, 
26, 22, 83, 
25, 29, 11, 
26, 8, 73, 
27, 3, 33, 
54, 73, 25, 
